0,
1,60.0
2,60.0
3,61.0
4,60.0
5,59.0
6,60.0
7,61.0
8,60.0
9,60.0
10,60.0
11,70.0
12,60.0
13,50.0
14,70.0
15,60.0
16,51.0
17,60.0
18,60.0
19,69.0
20,51.0
21,50.0
22,70.0
23,60.0
24,51.0
25,70.0
26,60.0
27,59.0
28,60.0
29,60.0
30,61.0
31,79.0
32,51.0
33,2742.0
34,51.0
35,2.0
36,13.0
37,6.0
38,40.0
39,21.0
40,69.0
41,50.0
42,62.0
43,58.0
44,63.0
45,58.0
46,59.0
47,61.0
48,70.0
49,51.0
50,59.0
51,62.0
52,69.0
53,49.0
54,60.0
55,71.0
56,50.0
57,61.0
58,58.0
59,61.0
60,61.0
61,90.0
62,29.0
63,70.0
64,52.0
65,58.0
66,61.0
67,70.0
68,
69,
70,
71,
72,
73,
74,
75,
76,
77,
78,
79,
80,
81,
82,
83,
84,
85,
86,
87,
88,
89,
90,
91,
92,
93,
94,
95,
96,
97,
98,
99,
100,
101,
102,
103,
104,
105,
106,
107,
108,
109,
